{
	"name": "walnut-test-params",
	"default": 
	{
		"site_url": "https://www.aws.dafitierp.com.br",
		"site_user": "teste.dafiti2016@gmail.com",
		"site_pass": "dafiti123"
	},

	"scenarios": 
	[
		{
			"name": "Cenario05",
			"info": 
			{
				"coupon": "cupom",
				"refund": "vale",
				"sku": "FI911SHF81OHE"
			}
		},

		{
			"name": "Cenario06",
			"info": 
			{
				"coupon": "cupom",
				"refund": "vale",
				"sku": "FI911SHF81OHE"
			}
		}
	]
}